…
```r
# Marvel Comics has the largest number of superheros
```

2. Notice that we have some neutral superheros! Who are they? List their names below.  

```r
superhero_info %>% 
  filter(alignment == "neutral") %>% 
  select("name", "alignment")
```

```
## # A tibble: 24 × 2
##    name         alignment
##    <chr>        <chr>    
##  1 Bizarro      neutral  
##  2 Black Flash  neutral  
##  3 Captain Cold neutral  
##  4 Copycat      neutral  
##  5 Deadpool     neutral  
##  6 Deathstroke  neutral  
##  7 Etrigan      neutral  
##  8 Galactus     neutral  
##  9 Gladiator    neutral  
## 10 Indigo       neutral  
## # ℹ 14 more rows
```

## `superhero_info`
3. Let's say we are only interested in the variables name, alignment, and "race". How would you isolate these variables from `superhero_info`?

```r
superhero_info %>% 
  select("name","alignment", "race")
```

```
## # A tibble: 734 × 3
##    name          alignment race             
##    <chr>         <chr>     <chr>            
##  1 A-Bomb        good      Human            
##  2 Abe Sapien    good      Icthyo Sapien    
##  3 Abin Sur      good      Ungaran          
##  4 Abomination   bad       Human / Radiation
##  5 Abraxas       bad       Cosmic Entity    
##  6 Absorbing Man bad       Human            
##  7 Adam Monroe   good      <NA>             
##  8 Adam Strange  good      Human            
##  9 Agent 13      good      <NA>             
## 10 Agent Bob     good      Human            
## # ℹ 724 more rows
```

## Not Human
4. List all of the superheros that are not human.

```r
superhero_info %>% 
  filter(race != "Human")
```

```
## # A tibble: 222 × 10
##    name  gender eye_color race  hair_color height publisher skin_color alignment
##    <chr> <chr>  <chr>     <chr> <chr>       <dbl> <chr>     <chr>      <chr>    
##  1 Abe … Male   blue      Icth… No Hair       191 Dark Hor… blue       good     
##  2 Abin… Male   blue      Unga… No Hair       185 DC Comics red        good     
##  3 Abom… Male   green     Huma… No Hair       203 Marvel C… <NA>       bad      
##  4 Abra… Male   blue      Cosm… Black          NA Marvel C… <NA>       bad      
##  5 Ajax  Male   brown     Cybo… Black         193 Marvel C… <NA>       bad      
##  6 Alien Male   <NA>      Xeno… No Hair       244 Dark Hor… black      bad      
##  7 Amazo Male   red       Andr… <NA>          257 DC Comics <NA>       bad      
##  8 Angel Male   <NA>      Vamp… <NA>           NA Dark Hor… <NA>       good     
##  9 Ange… Female yellow    Muta… Black         165 Marvel C… <NA>       good     
## 10 Anti… Male   yellow    God … No Hair        61 DC Comics <NA>       bad      
## # ℹ 212 more rows
## # ℹ 1 more variable: weight <dbl>
```
…
